<?xml version="1.0" standalone="no"?>
<!DOCTYPE svg PUBLIC "-//W3C//DTD SVG 20010904//EN"
 "http://www.w3.org/TR/2001/REC-SVG-20010904/DTD/svg10.dtd">
<svg version="1.0" xmlns="http://www.w3.org/2000/svg"
 width="700.000000pt" height="700.000000pt" viewBox="0 0 700.000000 700.000000"
 preserveAspectRatio="xMidYMid meet">
<metadata>
Created by potrace 1.11, written by Peter Selinger 2001-2013
</metadata>
<g transform="translate(0.000000,700.000000) scale(0.100000,-0.100000)"
fill="#000000" stroke="none">
<path d="M960 6989 c-500 -51 -898 -453 -950 -960 -6 -67 -10 -929 -10 -2558
0 -2087 2 -2470 15 -2551 36 -241 130 -426 304 -601 174 -173 354 -265 595
-304 137 -22 5035 -22 5172 0 241 39 421 131 595 304 174 175 268 360 304 601
13 81 15 464 15 2551 0 1629 -4 2491 -10 2558 -53 515 -449 908 -965 960 -132
13 -4934 13 -5065 0z m441 -1311 c38 -42 37 -59 -6 -107 -53 -58 -103 -147
-132 -236 -23 -70 -27 -96 -27 -210 0 -94 5 -148 18 -195 21 -78 75 -189 122
-249 41 -53 42 -64 8 -108 -48 -63 -92 -37 -177 106 -86 145 -123 298 -114
475 10 203 84 385 216 529 32 35 56 34 92 -5z m1024 -287 l600 -178 43 19 c24
10 48 18 53 18 5 0 9 -66 9 -150 0 -113 -3 -150 -12 -150 -7 0 -32 9 -55 20
l-43 19 -620 -186 c-342 -102 -623 -183 -625 -182 -7 8 -18 937 -10 948 9 16
-23 25 660 -178z m1553 153 c159 -40 290 -167 332 -323 18 -67 14 -187 -9
-253 -38 -110 -126 -214 -224 -265 -95 -49 -248 -60 -348 -25 -228 80 -354
314 -294 546 20 76 58 139 120 202 113 113 268 157 423 118z m-2397 -56 c53
-57 54 -60 10 -128 -52 -81 -62 -114 -68 -230 -4 -80 -2 -105 17 -159 11 -35
32 -80 46 -100 32 -47 30 -68 -8 -108 -57 -59 -87 -40 -155 100 -91 187 -60
439 74 605 39 48 53 51 84 20z m1249 -653 c14 -7 35 -24 48 -38 13 -14 81
-161 151 -328 111 -267 130 -305 153 -313 23 -8 99 21 530 199 524 217 601
245 680 245 86 0 168 -43 591 -308 227 -142 501 -314 611 -383 242 -151 273
-188 231 -268 -29 -57 -120 -76 -210 -45 -25 8 -270 141 -543 295 l-497 280
-53 -4 c-64 -5 -102 -35 -102 -81 0 -17 29 -298 65 -625 l65 -594 255 -1012
c145 -574 255 -1031 255 -1056 -1 -75 -43 -109 -137 -109 -101 1 -193 60 -231
147 -11 27 -100 365 -197 753 -97 388 -185 724 -197 747 -27 58 -61 83 -113
83 -37 0 -47 -5 -82 -43 -44 -48 -104 -161 -191 -357 -58 -132 -81 -191 -316
-785 -184 -469 -208 -509 -322 -562 -145 -66 -289 -18 -271 92 6 35 130 364
483 1283 124 321 229 606 234 634 20 102 10 279 -39 707 -44 382 -51 425 -70
444 -34 34 -81 25 -264 -52 -124 -52 -181 -71 -213 -71 -47 0 -108 25 -136 56
-9 11 -111 209 -227 442 -227 455 -228 458 -192 538 42 93 160 134 251 89z"/>
</g>
</svg>
